
state={
	id=255
	name="STATE_255"

	history={
		owner = X29
		victory_points = {
			589 8 
		}
		buildings = {
			infrastructure = 3
			industrial_complex = 1
			arms_factory = 0
			air_base = 5

		}
		
		add_core_of = X29
	}

	provinces={
		589 3397 3524 3574 
	}
	manpower=562000
	buildings_max_level_factor=1.000
	state_category=rural
}
