
state={
	id=347
	name="STATE_347"
	resources={
		chromium=2.000
		oil=2.000
	}

	history={
		owner = OMA
		victory_points = {
			10760 8 
		}
		buildings = {
			infrastructure = 3
			industrial_complex = 1
			arms_factory = 0
			air_base = 5

		}
		add_core_of = OMA
	}

	provinces={
		1947 2018 2059 2103 4993 5049 8002 8020 10760 
	}
	manpower=136800
	buildings_max_level_factor=1.000
	state_category=rural
}
