
state={
	id=433
	name="STATE_433"
	resources={
		aluminium=37.000
		chromium=70.000
		steel=1.000
	}

	history={
		owner = SOV
		victory_points = {
			7898 3 
		}
		buildings = {
			infrastructure = 3
			industrial_complex = 0
			arms_factory = 0
			air_base = 0

		}
		add_core_of = SOV
	}

	provinces={
		31 88 123 146 189 206 237 278 305 361 370 381 390 1295 1307 1336 1365 1380 1754 3000 3027 3127 3270 3280 3294 3300 3363 4298 4314 4326 4356 4372 4400 4802 4874 6025 6121 6162 6217 6274 6278 6288 6297 6323 6388 7318 7346 7359 7375 7403 7712 7824 7898 9145 9225 9283 9293 10200 10216 10286 10314 10551 10579 10677 11111 11124 11133 11170 11193 11195 11203 11228 11320 11352 11365 12175 12187 12203 12216 12244 12393 12502 12527 12558 12587 12626 12659 
	}
	manpower=1985940
	buildings_max_level_factor=1.000
	state_category=town
}
