
state={
	id=474
	name="STATE_474"

	history={
		owner = X73
		victory_points = {
			4159 3 
		}
		buildings = {
			infrastructure = 3
			industrial_complex = 1
			arms_factory = 0
			air_base = 0

		}
		add_core_of = ITA
		add_core_of = X73
	}

	provinces={
		1009 1156 3857 4014 4159 7059 7147 10074 12047 
	}
	manpower=1807600
	buildings_max_level_factor=1.000
	state_category=rural
}
