
state={
	id=5
	name="STATE_5"

	history={
		owner = ALG
		victory_points = {
			11953 8 
		}
		buildings = {
			infrastructure = 3
			industrial_complex = 1
			arms_factory = 0
			air_base = 5

		}
		add_core_of = ALG
	}

	provinces={
		1058 1126 1128 1141 1967 4018 4970 5053 7033 7149 9943 9960 9976 11953 12034 12888 
	}
	manpower=412840
	buildings_max_level_factor=1.000
	state_category=rural
}
