
state={
	id=7
	name="STATE_7"

	history={
		owner = X00
		victory_points = {
			9560 8 
		}
		buildings = {
			infrastructure = 3
			industrial_complex = 1
			arms_factory = 0
			air_base = 5

		}
		
		add_core_of = X00
	}

	provinces={
		9560 
	}
	manpower=144000
	buildings_max_level_factor=1.000
	state_category=rural
}
