
state={
	id=707
	name="STATE_707"

	history={
	owner = UNC
		add_core_of = UNC
		victory_points = {
			3415 1 
		}
		buildings = {
			infrastructure = 0
			industrial_complex = 0
			arms_factory = 0
			air_base = 0

		}
	}

	provinces={
		96 3415 4669 8461 10564 12545 
	}
	manpower=4000
	buildings_max_level_factor=1.000
	state_category=pastoral
}
