
state={
	id=74
	name="STATE_74"
	resources={
		aluminium=24.000
	}

	history={
		owner = BRA
		victory_points = {
			12466 3 
		}
		buildings = {
			infrastructure = 3
			industrial_complex = 0
			arms_factory = 0
			air_base = 0

		}
		add_core_of = BRA
	}

	provinces={
		1529 2109 4533 4548 4587 5156 5178 8181 8239 10405 12466 
	}
	manpower=513400
	buildings_max_level_factor=1.000
	state_category=pastoral
}
